<svg id="FHP_logo" xmlns="http://www.w3.org/2000/svg" viewBox="0 0 227 40">
  <defs>
    <style>
      .cls-1 {
        fill: #1d1d1b;
      }

      .cls-2 {
        fill: none;
      }
    </style>
  </defs>
  <g id="fhp" transform="translate(113.54)">
    <path id="Pfad_9" data-name="Pfad 9" class="cls-1" d="M222.5,1.785V3.749h1.964V4.783H222.5V7.728h-1.4V.7h3.617V1.785Z" transform="translate(-220.377 -0.338)"/>
    <path id="Pfad_10" data-name="Pfad 10" class="cls-1" d="M232.507,9.323l-.1-.517a2.509,2.509,0,0,1-1.6.672c-1.034,0-1.6-.517-1.6-1.5,0-1.085.879-1.809,2.687-1.809h.31V5.757c0-.517-.31-.775-.982-.775a5.508,5.508,0,0,0-1.6.31l-.155-.827A5.329,5.329,0,0,1,231.577,4c1.344,0,1.964.62,1.964,1.6V9.323Zm-.31-2.377h-.413c-1.034,0-1.292.31-1.292.827a.64.64,0,0,0,.724.672,1.446,1.446,0,0,0,.982-.465Z" transform="translate(-224.29 -1.933)"/>
    <path id="Pfad_11" data-name="Pfad 11" class="cls-1" d="M241.967,9.426c-1.4,0-2.067-.879-2.067-2.636,0-1.654.827-2.791,2.171-2.791a1.983,1.983,0,0,1,1.55.672l-.465.672a1.348,1.348,0,0,0-.879-.362c-.62,0-.982.568-.982,1.654,0,1.292.362,1.757.93,1.757a1.668,1.668,0,0,0,1.085-.413l.413.672A2.258,2.258,0,0,1,241.967,9.426Z" transform="translate(-229.461 -1.933)"/>
    <path id="Pfad_12" data-name="Pfad 12" class="cls-1" d="M253.441,7.39H252.1c0-1.085.052-2.171.052-2.739,0-1.24-.258-1.55-.724-1.55a1.913,1.913,0,0,0-.982.413V7.339H249.1V0h1.344V2.636a2.277,2.277,0,0,1,1.447-.568c1.034,0,1.6.672,1.6,2.377C253.493,5.065,253.441,6.253,253.441,7.39Z" transform="translate(-233.906)"/>
    <path id="Pfad_13" data-name="Pfad 13" class="cls-1" d="M264.741,7.39H263.4c0-1.085.052-2.171.052-2.739,0-1.24-.258-1.55-.724-1.55a1.913,1.913,0,0,0-.982.413V7.339H260.4V0h1.344V2.636a2.278,2.278,0,0,1,1.447-.568c1.034,0,1.6.672,1.6,2.377C264.793,5.065,264.741,6.253,264.741,7.39Z" transform="translate(-239.367)"/>
    <path id="Pfad_14" data-name="Pfad 14" class="cls-1" d="M273.426,9.378c-1.5,0-2.326-.775-2.326-2.636,0-1.912.982-2.842,2.532-2.842,1.5,0,2.326.775,2.326,2.636C275.958,8.5,274.976,9.378,273.426,9.378Zm.1-4.444c-.62,0-1.034.413-1.034,1.6,0,1.447.362,1.86,1.034,1.86.62,0,1.034-.413,1.034-1.6C274.614,5.3,274.2,4.934,273.529,4.934Z" transform="translate(-244.537 -1.884)"/>
    <path id="Pfad_15" data-name="Pfad 15" class="cls-1" d="M284.467,9.426c-1.4,0-2.067-.879-2.067-2.636,0-1.654.827-2.791,2.171-2.791a1.982,1.982,0,0,1,1.55.672l-.465.672a1.348,1.348,0,0,0-.879-.362c-.62,0-.982.568-.982,1.654,0,1.292.362,1.757.93,1.757a1.668,1.668,0,0,0,1.085-.413l.413.672A2.435,2.435,0,0,1,284.467,9.426Z" transform="translate(-249.997 -1.933)"/>
    <path id="Pfad_16" data-name="Pfad 16" class="cls-1" d="M295.841,7.39H294.5c0-1.085.052-2.171.052-2.739,0-1.24-.258-1.55-.724-1.55a1.913,1.913,0,0,0-.982.413V7.339H291.5V0h1.344V2.636a2.278,2.278,0,0,1,1.447-.568c1.034,0,1.6.672,1.6,2.377C295.893,5.065,295.841,6.253,295.841,7.39Z" transform="translate(-254.394)"/>
    <path id="Pfad_17" data-name="Pfad 17" class="cls-1" d="M303.7,9.378a3.357,3.357,0,0,1-1.6-.413l.1-.724A4.492,4.492,0,0,0,303.5,8.4c.672,0,.93-.258.93-.568,0-.362-.155-.517-.93-.775-.982-.362-1.4-.775-1.4-1.55a1.7,1.7,0,0,1,1.912-1.6,3.149,3.149,0,0,1,1.447.362l-.155.724a4.178,4.178,0,0,0-1.034-.155c-.517,0-.775.258-.775.517,0,.31.155.465.93.724,1.034.362,1.4.827,1.4,1.6C305.821,8.655,305.046,9.378,303.7,9.378Z" transform="translate(-259.516 -1.884)"/>
    <path id="Pfad_18" data-name="Pfad 18" class="cls-1" d="M313.067,9.426c-1.4,0-2.067-.879-2.067-2.636C311,5.137,311.827,4,313.171,4a1.983,1.983,0,0,1,1.55.672l-.465.672a1.348,1.348,0,0,0-.879-.362c-.62,0-.982.568-.982,1.654,0,1.292.362,1.757.93,1.757a1.668,1.668,0,0,0,1.085-.413l.413.672A2.435,2.435,0,0,1,313.067,9.426Z" transform="translate(-263.817 -1.933)"/>
    <path id="Pfad_19" data-name="Pfad 19" class="cls-1" d="M324.441,7.39H323.1c0-1.085.052-2.171.052-2.739,0-1.24-.258-1.55-.724-1.55a1.913,1.913,0,0,0-.982.413V7.339H320.1V0h1.344V2.636a2.277,2.277,0,0,1,1.447-.568c1.034,0,1.6.672,1.6,2.377C324.493,5.065,324.441,6.253,324.441,7.39Z" transform="translate(-268.214)"/>
    <path id="Pfad_20" data-name="Pfad 20" class="cls-1" d="M334.656,9.42l-.1-.568a2.34,2.34,0,0,1-1.55.672c-1.085,0-1.6-.672-1.6-2.377,0-.672.052-1.809.052-2.946H332.8c0,1.034-.052,2.119-.052,2.739,0,1.24.258,1.5.723,1.5a1.758,1.758,0,0,0,.982-.413V4.2h1.344V9.42Z" transform="translate(-273.674 -2.029)"/>
    <path id="Pfad_21" data-name="Pfad 21" class="cls-1" d="M343.734,7.494c-.672,0-1.034-.207-1.034-1.034V0h1.344V5.891c0,.568.052.672.362.672h.258l.052.775A2.6,2.6,0,0,1,343.734,7.494Z" transform="translate(-279.134)"/>
    <path id="Pfad_22" data-name="Pfad 22" class="cls-1" d="M349.244,7v.052c0,.982.413,1.344,1.189,1.344a5.7,5.7,0,0,0,1.705-.31l.207.775a5.008,5.008,0,0,1-2.171.568c-1.344,0-2.274-.672-2.274-2.584,0-1.86.93-2.842,2.377-2.842,1.344,0,2.222.775,2.067,3ZM351,6.119c0-.827-.258-1.24-.827-1.24s-.879.517-.93,1.24Z" transform="translate(-281.647 -1.933)"/>
    <path id="Pfad_23" data-name="Pfad 23" class="cls-1" d="M366.005,5.351h-.31V7.728h-1.4V.7h2.067c1.912,0,2.584.879,2.584,2.222C368.951,4.318,368.176,5.351,366.005,5.351Zm.1-3.669H365.7V4.318h.413c.93,0,1.344-.465,1.344-1.292C367.452,2.147,367.091,1.682,366.109,1.682Z" transform="translate(-289.571 -0.338)"/>
    <path id="Pfad_24" data-name="Pfad 24" class="cls-1" d="M376.926,9.378c-1.5,0-2.326-.775-2.326-2.636,0-1.912.982-2.842,2.532-2.842,1.5,0,2.326.775,2.326,2.636C379.458,8.5,378.476,9.378,376.926,9.378Zm.1-4.444c-.62,0-1.034.413-1.034,1.6,0,1.447.362,1.86,1.034,1.86.62,0,1.034-.413,1.034-1.6C378.062,5.3,377.7,4.934,377.029,4.934Z" transform="translate(-294.548 -1.884)"/>
    <path id="Pfad_25" data-name="Pfad 25" class="cls-1" d="M387.116,8.122c-.982,0-1.344-.362-1.344-1.344V3.729H385.1V2.8h.724c.1-.465.207-.93.31-1.5h.982V2.8h1.137v.93h-1.137V6.416c0,.517.1.724.465.724a2.328,2.328,0,0,0,.724-.1l.1.775A3.141,3.141,0,0,1,387.116,8.122Z" transform="translate(-299.622 -0.628)"/>
    <path id="Pfad_26" data-name="Pfad 26" class="cls-1" d="M394.4,9.378a3.357,3.357,0,0,1-1.6-.413l.1-.724A4.492,4.492,0,0,0,394.2,8.4c.672,0,.93-.258.93-.568,0-.362-.155-.517-.93-.775-.982-.362-1.4-.775-1.4-1.55a1.7,1.7,0,0,1,1.912-1.6,3.149,3.149,0,0,1,1.447.362l-.1.724a4.177,4.177,0,0,0-1.034-.155c-.517,0-.775.258-.775.517,0,.31.155.465.93.724,1.034.362,1.4.827,1.4,1.6C396.573,8.655,395.746,9.378,394.4,9.378Z" transform="translate(-303.343 -1.884)"/>
    <path id="Pfad_27" data-name="Pfad 27" class="cls-1" d="M405.159,7.39l-.1-.517a2.351,2.351,0,0,1-1.447.672c-1.24,0-1.809-1.137-1.809-2.532,0-2.119,1.137-2.946,2.584-2.946a1.768,1.768,0,0,1,.568.052V0H406.3V7.39ZM404.9,3.1a2.6,2.6,0,0,0-.62-.1c-.672,0-1.137.568-1.137,1.809,0,1.085.31,1.654.879,1.654a1.779,1.779,0,0,0,.93-.413V3.1Z" transform="translate(-307.692)"/>
    <path id="Pfad_28" data-name="Pfad 28" class="cls-1" d="M416.008,9.323l-.1-.517a2.509,2.509,0,0,1-1.6.672c-1.034,0-1.6-.517-1.6-1.5,0-1.085.878-1.809,2.687-1.809h.31V5.757c0-.517-.31-.775-.982-.775a5.508,5.508,0,0,0-1.6.31l-.155-.827A5.329,5.329,0,0,1,415.077,4c1.344,0,1.964.62,1.964,1.6V9.323Zm-.31-2.377h-.413c-1.034,0-1.292.31-1.292.827a.64.64,0,0,0,.724.672,1.446,1.446,0,0,0,.982-.465Z" transform="translate(-312.959 -1.933)"/>
    <path id="Pfad_29" data-name="Pfad 29" class="cls-1" d="M431.183,9.323H429.84c0-1.034.052-2.119.052-2.739,0-1.24-.207-1.55-.672-1.55a1.88,1.88,0,0,0-.982.465,2.973,2.973,0,0,1,.052.775v3h-1.344V6.584c0-1.24-.207-1.55-.672-1.55a1.627,1.627,0,0,0-.93.413V9.271H424V4.1h1.085l.1.568A2.375,2.375,0,0,1,426.739,4a1.349,1.349,0,0,1,1.292.775A2.474,2.474,0,0,1,429.685,4c1.034,0,1.55.672,1.55,2.377C431.235,7,431.183,8.186,431.183,9.323Z" transform="translate(-318.419 -1.933)"/>
    <path id="Pfad_30" data-name="Pfad 30" class="cls-1" d="M223.532,29.983c-1.654,0-2.532-.724-2.532-2.481V22.852h1.4v4.5c0,1.189.362,1.6,1.24,1.6.775,0,1.24-.362,1.24-1.55V22.8h1.4v4.5A2.415,2.415,0,0,1,223.532,29.983Z" transform="translate(-220.328 -11.017)"/>
    <path id="Pfad_31" data-name="Pfad 31" class="cls-1" d="M238.641,31.523H237.3c0-1.034.052-2.119.052-2.739,0-1.24-.258-1.5-.723-1.5a1.913,1.913,0,0,0-.982.413v3.824H234.3V26.3h1.085l.1.568a2.363,2.363,0,0,1,1.6-.672c1.034,0,1.6.672,1.6,2.377C238.693,29.2,238.641,30.386,238.641,31.523Z" transform="translate(-226.755 -12.66)"/>
    <path id="Pfad_32" data-name="Pfad 32" class="cls-1" d="M246.227,23.747c-.62,0-.827-.155-.827-.724,0-.517.155-.724.827-.724s.775.155.775.724C247,23.54,246.847,23.747,246.227,23.747Zm-.724,5.891v-5.22h1.344v5.22Z" transform="translate(-232.118 -10.775)"/>
    <path id="Pfad_33" data-name="Pfad 33" class="cls-1" d="M253.356,31.62H251.6l-1.5-5.22h1.447l.827,2.946.207,1.034a24.094,24.094,0,0,0,.879-3.979h1.4A20.16,20.16,0,0,1,253.356,31.62Z" transform="translate(-234.389 -12.757)"/>
    <path id="Pfad_34" data-name="Pfad 34" class="cls-1" d="M261.944,29.1v.052c0,.982.413,1.344,1.189,1.344a5.7,5.7,0,0,0,1.705-.31l.207.775a5.007,5.007,0,0,1-2.171.568c-1.344,0-2.274-.672-2.274-2.584,0-1.86.93-2.842,2.377-2.842,1.344,0,2.222.775,2.067,3Zm1.809-.827c0-.827-.258-1.24-.827-1.24s-.879.517-.93,1.24Z" transform="translate(-239.463 -12.612)"/>
    <path id="Pfad_35" data-name="Pfad 35" class="cls-1" d="M274.542,27.492a1.781,1.781,0,0,0-.465-.052c-.31,0-.517.207-1.034.775v3.307H271.7V26.3h1.085l.1.827c.517-.724.879-.93,1.24-.93a2.274,2.274,0,0,1,.517.1Z" transform="translate(-244.827 -12.66)"/>
    <path id="Pfad_36" data-name="Pfad 36" class="cls-1" d="M280.2,31.578a3.357,3.357,0,0,1-1.6-.413l.1-.724A4.318,4.318,0,0,0,280,30.6c.672,0,.93-.258.93-.568,0-.362-.155-.517-.93-.775-.982-.362-1.4-.775-1.4-1.55a1.7,1.7,0,0,1,1.912-1.6,3.149,3.149,0,0,1,1.447.362l-.155.672a4.178,4.178,0,0,0-1.034-.155c-.517,0-.775.258-.775.517,0,.31.155.465.93.724,1.034.362,1.4.827,1.4,1.6C282.321,30.855,281.546,31.578,280.2,31.578Z" transform="translate(-248.161 -12.612)"/>
    <path id="Pfad_37" data-name="Pfad 37" class="cls-1" d="M288.527,23.747c-.62,0-.827-.155-.827-.724,0-.517.155-.724.827-.724s.775.155.775.724C289.3,23.54,289.147,23.747,288.527,23.747Zm-.724,5.891v-5.22h1.344v5.22Z" transform="translate(-252.558 -10.775)"/>
    <path id="Pfad_38" data-name="Pfad 38" class="cls-1" d="M294.316,30.37c-.982,0-1.344-.362-1.344-1.344v-3H292.3V25.1h.724c.1-.465.207-.93.31-1.5h.982v1.5h1.137v.93h-1.137v2.687c0,.517.1.724.465.724a2.328,2.328,0,0,0,.724-.1l.1.775A4.1,4.1,0,0,1,294.316,30.37Z" transform="translate(-254.781 -11.404)"/>
    <path id="Pfad_39" data-name="Pfad 39" class="cls-1" d="M300.375,33.432a1.587,1.587,0,0,1-.775-.207V32.45c.155,0,.413.052.517.052a1.246,1.246,0,0,0,.775-.207.808.808,0,0,0,.31-.62,2.861,2.861,0,0,0-.258-1.034L299.652,26.4H301.1l.775,2.842a3.3,3.3,0,0,1,.207,1.292,18.7,18.7,0,0,0,.879-4.238h1.4C303.528,31.778,301.822,33.432,300.375,33.432Z" transform="translate(-258.308 -12.708)"/>
    <path id="Pfad_40" data-name="Pfad 40" class="cls-1" d="M316.826,31.578c-1.5,0-2.326-.775-2.326-2.636,0-1.912.982-2.842,2.532-2.842,1.5,0,2.326.775,2.326,2.636C319.358,30.7,318.376,31.578,316.826,31.578Zm.1-4.444c-.62,0-1.034.413-1.034,1.6,0,1.447.362,1.86,1.034,1.86.62,0,1.034-.413,1.034-1.6C317.963,27.5,317.6,27.134,316.929,27.134Z" transform="translate(-265.508 -12.612)"/>
    <path id="Pfad_41" data-name="Pfad 41" class="cls-1" d="M328.3,23.134a1.311,1.311,0,0,0-.62-.1c-.413,0-.569.207-.569.672v.672h.93v.93h-.93v4.289h-1.344V25.3H325.1v-.93h.672v-.62c0-1.034.413-1.654,1.447-1.654a2.73,2.73,0,0,1,1.24.31Z" transform="translate(-270.63 -10.679)"/>
    <path id="Pfad_42" data-name="Pfad 42" class="cls-1" d="M223.989,52.128c-.1-.413-.207-.982-.31-1.4h-2.326c-.1.413-.207.93-.31,1.4H219.7a67.6,67.6,0,0,1,1.964-7.028h1.861a62.386,62.386,0,0,1,1.964,7.028Zm-1.5-5.788c-.31.982-.62,2.274-.93,3.359h1.86C223.163,48.614,222.852,47.426,222.491,46.34Z" transform="translate(-219.7 -21.792)"/>
    <path id="Pfad_43" data-name="Pfad 43" class="cls-1" d="M234.612,53.778a2.318,2.318,0,0,1-.569-.052v1.705H232.7V48.455h1.085l.1.517a2.351,2.351,0,0,1,1.447-.672c1.24,0,1.861,1.137,1.861,2.532C237.248,52.9,236.111,53.778,234.612,53.778Zm.413-4.444a1.779,1.779,0,0,0-.93.413v2.894a2.221,2.221,0,0,0,.62.1c.672,0,1.137-.568,1.137-1.809C235.852,49.954,235.542,49.334,235.026,49.334Z" transform="translate(-225.982 -23.339)"/>
    <path id="Pfad_44" data-name="Pfad 44" class="cls-1" d="M245.712,53.778a2.317,2.317,0,0,1-.568-.052v1.705H243.8V48.455h1.085l.1.517a2.351,2.351,0,0,1,1.447-.672c1.24,0,1.86,1.137,1.86,2.532C248.3,52.9,247.211,53.778,245.712,53.778Zm.362-4.444a1.779,1.779,0,0,0-.93.413v2.894a2.221,2.221,0,0,0,.62.1c.672,0,1.137-.568,1.137-1.809C246.952,49.954,246.642,49.334,246.074,49.334Z" transform="translate(-231.345 -23.339)"/>
    <path id="Pfad_45" data-name="Pfad 45" class="cls-1" d="M255.934,51.842c-.672,0-1.034-.207-1.034-1.034V44.4h1.344v5.891c0,.568.052.672.362.672h.258l.052.775A4.757,4.757,0,0,1,255.934,51.842Z" transform="translate(-236.709 -21.454)"/>
    <path id="Pfad_46" data-name="Pfad 46" class="cls-1" d="M261.327,45.947c-.62,0-.827-.155-.827-.724,0-.517.155-.724.827-.724s.775.155.775.724C262.1,45.74,261.947,45.947,261.327,45.947Zm-.672,5.891v-5.22H262v5.22Z" transform="translate(-239.415 -21.503)"/>
    <path id="Pfad_47" data-name="Pfad 47" class="cls-1" d="M267.144,51.3v.052c0,.982.413,1.344,1.189,1.344a5.7,5.7,0,0,0,1.705-.31l.207.775a5.007,5.007,0,0,1-2.171.568c-1.344,0-2.274-.672-2.274-2.584,0-1.86.93-2.842,2.377-2.842,1.344,0,2.222.775,2.067,3Zm1.757-.827c0-.827-.258-1.24-.827-1.24s-.879.517-.93,1.24Z" transform="translate(-241.976 -23.339)"/>
    <path id="Pfad_48" data-name="Pfad 48" class="cls-1" d="M279.759,51.838l-.1-.517a2.351,2.351,0,0,1-1.447.672c-1.24,0-1.809-1.137-1.809-2.532,0-2.119,1.137-2.946,2.584-2.946a1.767,1.767,0,0,1,.568.052V44.5H280.9v7.39h-1.137Zm-.258-4.289a2.594,2.594,0,0,0-.62-.1c-.672,0-1.137.568-1.137,1.809,0,1.085.31,1.654.879,1.654a1.779,1.779,0,0,0,.93-.413V47.549Z" transform="translate(-247.098 -21.503)"/>
    <path id="Pfad_49" data-name="Pfad 49" class="cls-1" d="M294.619,52.135a3.691,3.691,0,0,1-2.119-.672l.31-.724a5.15,5.15,0,0,0,1.5.362c.724,0,1.189-.31,1.189-.93,0-1.4-2.946-1.085-2.946-3.307a2.022,2.022,0,0,1,2.274-1.964,3.044,3.044,0,0,1,1.86.568l-.31.724a4.392,4.392,0,0,0-1.292-.258c-.723,0-1.034.31-1.034.827,0,1.4,3,1.137,3,3.308A2.15,2.15,0,0,1,294.619,52.135Z" transform="translate(-254.877 -21.696)"/>
    <path id="Pfad_50" data-name="Pfad 50" class="cls-1" d="M305.067,53.826c-1.4,0-2.067-.879-2.067-2.636,0-1.654.827-2.791,2.171-2.791a1.983,1.983,0,0,1,1.55.672l-.465.672a1.349,1.349,0,0,0-.879-.362c-.62,0-.982.568-.982,1.654,0,1.292.362,1.757.93,1.757a1.668,1.668,0,0,0,1.085-.413l.413.672A2.258,2.258,0,0,1,305.067,53.826Z" transform="translate(-259.951 -23.387)"/>
    <path id="Pfad_51" data-name="Pfad 51" class="cls-1" d="M312.927,45.947c-.62,0-.827-.155-.827-.724,0-.517.155-.724.827-.724s.775.155.775.724C313.754,45.74,313.6,45.947,312.927,45.947Zm-.672,5.891v-5.22H313.6v5.22Z" transform="translate(-264.348 -21.503)"/>
    <path id="Pfad_52" data-name="Pfad 52" class="cls-1" d="M318.744,51.3v.052c0,.982.413,1.344,1.189,1.344a5.7,5.7,0,0,0,1.705-.31l.207.775a5.007,5.007,0,0,1-2.171.568c-1.344,0-2.274-.672-2.274-2.584,0-1.86.93-2.842,2.377-2.842,1.344,0,2.222.775,2.067,3Zm1.809-.827c0-.827-.258-1.24-.827-1.24s-.879.517-.93,1.24Z" transform="translate(-266.909 -23.339)"/>
    <path id="Pfad_53" data-name="Pfad 53" class="cls-1" d="M332.841,53.723H331.5c0-1.034.052-2.119.052-2.739,0-1.24-.258-1.5-.724-1.5a1.913,1.913,0,0,0-.982.413v3.824H328.5V48.5h1.085l.1.568a2.363,2.363,0,0,1,1.6-.672c1.034,0,1.6.672,1.6,2.377C332.893,51.4,332.841,52.586,332.841,53.723Z" transform="translate(-272.273 -23.387)"/>
    <path id="Pfad_54" data-name="Pfad 54" class="cls-1" d="M341.367,53.826c-1.4,0-2.067-.879-2.067-2.636,0-1.654.827-2.791,2.171-2.791a1.983,1.983,0,0,1,1.55.672l-.465.672a1.348,1.348,0,0,0-.879-.362c-.62,0-.982.568-.982,1.654,0,1.292.362,1.757.93,1.757a1.668,1.668,0,0,0,1.085-.413l.413.672A2.434,2.434,0,0,1,341.367,53.826Z" transform="translate(-277.491 -23.387)"/>
    <path id="Pfad_55" data-name="Pfad 55" class="cls-1" d="M349.144,51.3v.052c0,.982.413,1.344,1.189,1.344a5.7,5.7,0,0,0,1.705-.31l.207.775a5.008,5.008,0,0,1-2.171.568c-1.344,0-2.274-.672-2.274-2.584,0-1.86.93-2.842,2.377-2.842,1.344,0,2.222.775,2.067,3Zm1.809-.827c0-.827-.258-1.24-.827-1.24s-.879.517-.93,1.24Z" transform="translate(-281.599 -23.339)"/>
    <path id="Pfad_56" data-name="Pfad 56" class="cls-1" d="M359.8,53.778a3.357,3.357,0,0,1-1.6-.413l.1-.724a4.318,4.318,0,0,0,1.292.155c.672,0,.93-.258.93-.568,0-.362-.155-.517-.93-.775-.982-.362-1.4-.775-1.4-1.55a1.7,1.7,0,0,1,1.912-1.6,3.149,3.149,0,0,1,1.447.362l-.155.672a4.178,4.178,0,0,0-1.034-.155c-.517,0-.775.258-.775.517,0,.31.155.465.93.724,1.034.362,1.4.827,1.4,1.6C361.921,53.055,361.146,53.778,359.8,53.778Z" transform="translate(-286.624 -23.339)"/>
  </g>
  <g id="FHP-2" data-name="FHP" transform="translate(0 0.362)">
    <g id="Gruppe_20" data-name="Gruppe 20" transform="translate(57.933 4.703)">
      <path id="Pfad_5" data-name="Pfad 5" class="cls-1" d="M121.506,49.034c0,4.238-.982,7.442-4.806,10.439l-4.186-3.514c2.171-2.067,2.894-3.618,2.946-6.15H112.1V40.3h9.406Z" transform="translate(-112.1 -24.538)"/>
      <rect id="Rechteck_14" data-name="Rechteck 14" class="cls-1" width="9.302" height="9.457" transform="translate(0.103)"/>
    </g>
    <path id="Pfad_6" data-name="Pfad 6" class="cls-1" d="M0,30.674V.7H22.532V7.832H9.044V13.1H21.5v7.132H9.044V30.674Z" transform="translate(0 -0.7)"/>
    <path id="Pfad_7" data-name="Pfad 7" class="cls-1" d="M67.436,30.674V18.943H58.651V30.674H49.4V.7h9.251V11.243h8.734V.7h9.3V30.674Z" transform="translate(-23.87 -0.7)"/>
    <path id="Pfad_8" data-name="Pfad 8" class="cls-1" d="M140.5,30.674V.7h12.816c5.891,0,8.424.62,10.233,1.809,2.636,1.757,3.928,4.6,3.928,8.32a9.867,9.867,0,0,1-3.773,8.217c-2.067,1.5-4.806,2.222-9.457,2.222H149.7v9.406Zm12.713-16.382a6.446,6.446,0,0,0,3.824-.827,2.939,2.939,0,0,0,.93-2.377,3.079,3.079,0,0,0-.93-2.377c-.672-.62-1.757-.827-3.669-.827H149.7v6.408Z" transform="translate(-67.89 -0.7)"/>
  </g>
  <rect id="frame" class="cls-2" width="227" height="40"/>
</svg>
